Hotel Booking Demand Dataset Case Study - EDA
…
Explore the hotel bookings

Data cleansing

hotel_stays<-hotels %>% 
  filter(is_canceled == 0) %>% 
  mutate(children = case_when(children+babies > 0 ~ "children", TRUE ~ "none"),
  hotel = recode(hotel,'Citi Hotel'='City Hotel','Reosrt Hotel'='Resort Hotel'),
  required_car_parking_spaces = case_when(required_car_parking_spaces>0~'parking', TRUE~ "none")) %>%   select(-is_canceled, -reservation_status,-babies)

hotel_stays

## # A tibble: 75,166 x 30
##    hotel `No Response` lead_time arrival_date_ye~ arrival_date_mo~
##    <chr> <lgl>             <dbl>            <dbl> <chr>           
##  1 Reso~ NA                  342             2015 July            
##  2 Reso~ NA                  737             2015 July            
##  3 Reso~ NA                    7             2015 July            
##  4 Reso~ NA                   13             2015 July            
##  5 Reso~ NA                   14             2015 July            
##  6 Reso~ NA                   14             2015 July            
##  7 Reso~ NA                    0             2015 July            
##  8 Reso~ NA                    9             2015 July            
##  9 Reso~ NA                   35             2015 July            
## 10 Reso~ NA                   68             2015 July            
## # ... with 75,156 more rows, and 25 more variables:
## #   arrival_date_week_number <dbl>, arrival_date_day_of_month <dbl>,
## #   stays_in_weekend_nights <dbl>, stays_in_week_nights <dbl>, adults <dbl>,
## #   children <chr>, meal <chr>, country <chr>, market_segment <chr>,
## #   distribution_channel <chr>, is_repeated_guest <dbl>,
## #   previous_cancellations <dbl>, previous_bookings_not_canceled <dbl>,
## #   reserved_room_type <chr>, assigned_room_type <chr>, booking_changes <dbl>,
## #   deposit_type <chr>, agent <chr>, company <chr>, days_in_waiting_list <dbl>,
## #   customer_type <chr>, adr <dbl>, required_car_parking_spaces <chr>,
…
